{
	"notifications" : {
		"type" : "checkbox",
		"default" : true,
		"description" : "Show notifications",
		"tooltip" : "Enables display of mail arrived notifications by applet. Make sure you disable mailnag notification plugin, otherwise you will have duplicates."
    },

    "launch_client_on_click" : {
        "type" : "checkbox",
        "default" : false,
        "description" : "Launch mail client on click",
        "tooltip" : "Mail client is launched when clicked on a menu item."
    },

	"middle_click" : {
		"type" : "combobox",
		"default" : "mark_read",
		"description" : "On middle click:",
		"tooltip" : "What to do when middle clicked on applet icon",
		"options" : {
			"Mark all read" : "mark_read",
			"Launch mail client" : "launch_client",
			"Do nothing" : "do_nothing"
		}
	},

    "client" : {
        "type" : "entry",
        "default" : "thunderbird",
        "description" : "Mail client to launch (or webpage)",
        "tooltip" : "Enter the command to launch your mail client here. You can also enter a web address that starts with 'http'.",
        "indent" : true
    },

    "btn_configure_mailnag" : {
        "type" : "button",
        "description" : "Configure Mailnag",
        "callback" : "launchMailnagConfig"
    }
}
